{"data":{"projects":[{"projectId":"a9bcb1a9-20ea-4ad5-a4e3-1ed9662284ac","projectName":"Updated Project Name","projectSlug":"qa-test-project","frameworkId":"vite-react","status":"draft","visibility":"restricted","workspaceName":"Owner Pro's workspace","ownerEmail":"owner-pro@doable.me","runtimeState":null,"runtimeKind":null,"listenAddr":null,"sessionsCount":1,"messagesCount":12,"createdAt":"2026-05-14T17:33:41.168Z","updatedAt":"2026-05-14T18:07:55.840Z","sandboxUser":"doable-qa-test-project"},{"projectId":"80bd2376-2c67-4df8-b459-ad4e8dce0c81","projectName":"MCP QA Test Project","projectSlug":"mcp-qa-test-project","frameworkId":"vite-react","status":"draft","visibility":"restricted","workspaceName":"QA Team Workspace","ownerEmail":"owner-pro@doable.me","runtimeState":null,"runtimeKind":null,"listenAddr":null,"sessionsCount":1,"messagesCount":4,"createdAt":"2026-05-14T17:58:18.940Z","updatedAt":"2026-05-14T17:58:18.940Z","sandboxUser":"doable-mcp-qa-test-project"}],"total":49,"limit":2,"offset":2,"page":2,"meta":{"total":49,"page":2,"per":2,"pages":25}}}