{"data":{"projects":[{"projectId":"702fc245-e1d5-4790-94b9-c161bb54e36c","projectName":"AI Chat Test","projectSlug":"ai-chat-test","frameworkId":"vite-react","status":"draft","visibility":"restricted","workspaceName":"Admin Two workspace","ownerEmail":"admin2@doable.me","runtimeState":null,"runtimeKind":null,"listenAddr":null,"sessionsCount":0,"messagesCount":0,"createdAt":"2026-05-14T17:57:53.436Z","updatedAt":"2026-05-14T17:57:53.436Z","sandboxUser":"doable-ai-chat-test"},{"projectId":"b2780817-b842-41da-8bae-4a72b2e7448b","projectName":"Attached Pdf Is Requirementa Doc","projectSlug":"attached-pdf-is-requirementa-doc","frameworkId":"vite-react","status":"draft","visibility":"restricted","workspaceName":"Godwin's workspace","ownerEmail":"uniquegodwin@gmail.com","runtimeState":null,"runtimeKind":null,"listenAddr":null,"sessionsCount":0,"messagesCount":0,"createdAt":"2026-05-14T02:49:35.365Z","updatedAt":"2026-05-14T02:50:23.908Z","sandboxUser":"doable-attached-pdf-is-requireme"},{"projectId":"78f62ee0-4397-4e90-9b83-0339670f941a","projectName":"Before Building The App,first Capture All","projectSlug":"before-building-the-app-first-capture-all-system","frameworkId":"vite-react","status":"draft","visibility":"restricted","workspaceName":"Godwin's workspace","ownerEmail":"uniquegodwin@gmail.com","runtimeState":null,"runtimeKind":null,"listenAddr":null,"sessionsCount":0,"messagesCount":0,"createdAt":"2026-05-13T04:57:17.808Z","updatedAt":"2026-05-13T04:59:38.582Z","sandboxUser":"doable-before-building-the-app-f"},{"projectId":"60d6ae1a-f266-4efa-b034-16fff0cc0642","projectName":"Build A Kanban With Sicky Notes...very","projectSlug":"build-a-kanban-with-sicky-notes-very-visual-to-m","frameworkId":"vite-react","status":"draft","visibility":"restricted","workspaceName":"Godwin's workspace","ownerEmail":"uniquegodwin@gmail.com","runtimeState":null,"runtimeKind":null,"listenAddr":null,"sessionsCount":1,"messagesCount":2,"createdAt":"2026-05-14T16:39:51.379Z","updatedAt":"2026-05-14T16:41:58.514Z","sandboxUser":"doable-build-a-kanban-with-sicky"},{"projectId":"f07f322e-408c-4fea-b5f6-26feff626d5a","projectName":"Build A NoteApp From This PDF","projectSlug":"build-a-noteapp-from-this-pdf-spec-one-page-add-","frameworkId":"vite-react","status":"draft","visibility":"restricted","workspaceName":"Godwin's workspace","ownerEmail":"uniquegodwin@gmail.com","runtimeState":null,"runtimeKind":null,"listenAddr":null,"sessionsCount":1,"messagesCount":4,"createdAt":"2026-05-14T04:40:52.018Z","updatedAt":"2026-05-14T04:43:33.665Z","sandboxUser":"doable-build-a-noteapp-from-this"}],"total":49,"limit":5,"offset":0,"page":1,"meta":{"total":49,"page":1,"per":5,"pages":10}}}